Category	Term	Count	%	PValue	Genes	List Total	Pop Hits	Pop Total	Fold Enrichment	Bonferroni	Benjamini	FDR
GOTERM_CC_ALL	GO:0044459~plasma membrane part	83	21.899736147757256	1.5974514501065504E-7	37223_AT, 35985_AT, 471_F_AT, 2036_S_AT, 35149_AT, 40442_F_AT, 38538_AT, 1148_S_AT, 37233_AT, 39586_AT, 40913_AT, 39757_AT, 36161_AT, 36173_R_AT, 34537_AT, 39573_AT, 40669_AT, 259_S_AT, 38642_AT, 136_AT, 38018_G_AT, 1569_R_AT, 33665_S_AT, 40365_AT, 257_AT, 34981_AT, 36728_AT, 33802_AT, 37139_AT, 38032_AT, 33143_S_AT, 35595_AT, 833_AT, 41105_S_AT, 36285_AT, 39242_AT, 1852_AT, 33751_AT, 35471_G_AT, 33545_AT, 34493_AT, 1602_AT, 988_AT, 32133_AT, 2082_S_AT, 40954_AT, 37048_AT, 39748_AT, 31615_I_AT, 34712_AT, 39841_AT, 35414_S_AT, 33012_AT, 41726_AT, 35472_AT, 39232_AT, 1007_S_AT, 41159_AT, 1139_AT, 39071_AT, 34145_AT, 1167_S_AT, 1857_AT, 40210_AT, 36532_AT, 31745_AT, 39753_AT, 1125_S_AT, 39424_AT, 41106_AT, 37628_AT, 37889_AT, 32522_F_AT, 40098_AT, 37857_AT, 32931_AT, 1432_S_AT, 36052_AT, 33829_AT, 38629_AT, 40310_AT, 38221_AT, 33366_AT, 600_AT, 31977_AT, 34184_AT, 35776_AT	339	2203	15908	1.7679886772797084	5.574950599684936E-5	5.574950599684936E-5	2.1838691950382128E-4
GOTERM_CC_ALL	GO:0000267~cell fraction	45	11.87335092348285	2.5319416742784622E-5	35606_AT, 37762_AT, 39841_AT, 1939_AT, 37378_R_AT, 38538_AT, 37233_AT, 36754_AT, 39372_AT, 41726_AT, 41779_AT, 32779_S_AT, 39573_AT, 887_AT, 40735_AT, 1270_AT, 31694_AT, 32718_AT, 36760_AT, 36532_AT, 2004_AT, 39175_AT, 39753_AT, 34666_AT, 33802_AT, 37317_AT, 37139_AT, 1750_AT, 33143_S_AT, 37377_I_AT, 40840_AT, 1463_AT, 33470_AT, 36651_AT, 35378_AT, 568_AT, 31564_AT, 1432_S_AT, 32359_AT, 41717_AT, 612_S_AT, 36103_AT, 988_AT, 600_AT, 1994_AT, 35776_AT, 35768_AT	339	1083	15908	1.9498443360380457	0.00879766041348895	0.004408547853834266	0.03460855181741662
GOTERM_CC_ALL	GO:0031988~membrane-bounded vesicle	29	7.651715039577836	3.306007775144173E-5	1520_S_AT, 1953_AT, 39402_AT, 38685_AT, 41726_AT, 32779_S_AT, 36161_AT, 40347_AT, 41159_AT, 36749_AT, 40856_AT, 40669_AT, 36101_S_AT, 35886_AT, 1139_AT, 38391_AT, 36100_AT, 39407_AT, 41445_AT, 36760_AT, 38032_AT, 40098_AT, 32522_F_AT, 39242_AT, 37440_AT, 35536_AT, 612_S_AT, 989_AT, 41598_AT, 41382_AT, 600_AT, 35776_AT	339	568	15908	2.3958826706551997	0.011471848593018752	0.0038386660332161426	0.04518687451077197
GOTERM_CC_ALL	GO:0031982~vesicle	32	8.443271767810026	4.194106301886702E-5	1520_S_AT, 1953_AT, 39402_AT, 38685_AT, 41726_AT, 32779_S_AT, 36161_AT, 40347_AT, 41159_AT, 36749_AT, 40856_AT, 40669_AT, 36101_S_AT, 35886_AT, 1139_AT, 38391_AT, 36100_AT, 39407_AT, 34145_AT, 41445_AT, 40210_AT, 36760_AT, 38032_AT, 32522_F_AT, 40098_AT, 39242_AT, 37440_AT, 33751_AT, 35536_AT, 612_S_AT, 989_AT, 41598_AT, 41382_AT, 600_AT, 35776_AT	339	670	15908	2.241253907453881	0.014531127085214313	0.0036527469188946116	0.05732227677202051
GOTERM_CC_ALL	GO:0005829~cytosol	50	13.192612137203167	1.0241620210348959E-4	35606_AT, 430_AT, 39522_AT, 32379_F_AT, 34438_AT, 39586_AT, 32583_AT, 41400_AT, 36161_AT, 35886_AT, 41216_R_AT, 37111_G_AT, 1919_AT, 39175_AT, 33802_AT, 1891_AT, 41105_S_AT, 34475_AT, 706_AT, 38860_AT, 39304_G_AT, 1602_AT, 1994_AT, 40792_S_AT, 1461_AT, 1939_AT, 32897_AT, 1895_AT, 37722_S_AT, 40735_AT, 33455_AT, 1270_AT, 37206_AT, 35018_AT, 1857_AT, 40473_AT, 2004_AT, 37317_AT, 35714_AT, 1750_AT, 33346_R_AT, 1463_AT, 33470_AT, 33698_AT, 568_AT, 40522_AT, 38629_AT, 1091_AT, 32186_AT, 749_AT, 35776_AT, 32486_AT	339	1330	15908	1.7641448754629938	0.03511377389501302	0.0071235235657952645	0.13992209109658926
GOTERM_CC_ALL	GO:0031410~cytoplasmic vesicle	30	7.9155672823219	1.1267341042238634E-4	1520_S_AT, 1953_AT, 39402_AT, 38685_AT, 41726_AT, 32779_S_AT, 36161_AT, 40347_AT, 41159_AT, 36749_AT, 40856_AT, 40669_AT, 36101_S_AT, 35886_AT, 1139_AT, 38391_AT, 36100_AT, 34145_AT, 41445_AT, 40210_AT, 36760_AT, 38032_AT, 40098_AT, 32522_F_AT, 39242_AT, 37440_AT, 33751_AT, 35536_AT, 612_S_AT, 41598_AT, 41382_AT, 600_AT, 35776_AT	339	642	15908	2.1928155928652164	0.03856203569006711	0.006532773996408059	0.1539255953115326
GOTERM_CC_ALL	GO:0016023~cytoplasmic membrane-bounded vesicle	27	7.12401055408971	1.254137046819436E-4	1520_S_AT, 1953_AT, 39402_AT, 38685_AT, 41726_AT, 32779_S_AT, 36161_AT, 40347_AT, 41159_AT, 36749_AT, 40856_AT, 40669_AT, 36101_S_AT, 35886_AT, 1139_AT, 38391_AT, 36100_AT, 41445_AT, 36760_AT, 38032_AT, 40098_AT, 32522_F_AT, 39242_AT, 37440_AT, 35536_AT, 612_S_AT, 41598_AT, 41382_AT, 600_AT, 35776_AT	339	550	15908	2.3036524537409493	0.04282795447979504	0.006233650791105827	0.1713165620939261
GOTERM_CC_ALL	GO:0009897~external side of plasma membrane	13	3.430079155672823	2.8341300689555817E-4	257_AT, 2036_S_AT, 35149_AT, 31615_I_AT, 1125_S_AT, 39424_AT, 40442_F_AT, 41726_AT, 1852_AT, 32931_AT, 40310_AT, 259_S_AT, 39071_AT, 38642_AT, 1167_S_AT, 38018_G_AT, 39753_AT	339	170	15908	3.588478223147666	0.09418950221273215	0.012289504380156746	0.3867581997746061
GOTERM_CC_ALL	GO:0009986~cell surface	19	5.013192612137203	4.866751441061131E-4	2036_S_AT, 35149_AT, 31615_I_AT, 40442_F_AT, 1953_AT, 38654_AT, 41169_AT, 41726_AT, 189_S_AT, 259_S_AT, 39071_AT, 36101_S_AT, 38642_AT, 36100_AT, 41445_AT, 38018_G_AT, 1167_S_AT, 39753_AT, 257_AT, 1125_S_AT, 39424_AT, 32699_S_AT, 1852_AT, 32931_AT, 31558_AT, 40310_AT	339	348	15908	2.5620655748821757	0.15624319319471935	0.01869972388132657	0.663284671512343
GOTERM_CC_ALL	GO:0005626~insoluble fraction	34	8.970976253298153	4.927664337089629E-4	35606_AT, 37762_AT, 39841_AT, 37378_R_AT, 1939_AT, 38538_AT, 37233_AT, 39372_AT, 41726_AT, 41779_AT, 32779_S_AT, 887_AT, 39573_AT, 31694_AT, 1270_AT, 32718_AT, 36532_AT, 39753_AT, 2004_AT, 33802_AT, 37317_AT, 37139_AT, 33143_S_AT, 37377_I_AT, 40840_AT, 33470_AT, 36651_AT, 568_AT, 31564_AT, 41717_AT, 612_S_AT, 988_AT, 600_AT, 1994_AT, 35776_AT, 35768_AT	339	839	15908	1.9016598633715514	0.15803587384368223	0.017054681079577638	0.6715605304818184
GOTERM_CC_ALL	GO:0048770~pigment granule	9	2.3746701846965697	6.055301871908753E-4	41159_AT, 612_S_AT, 40669_AT, 40856_AT, 1139_AT, 38391_AT, 41598_AT, 600_AT, 36760_AT	339	89	15908	4.7453514964701204	0.19054495730012178	0.01903415880128123	0.8246503090822421
GOTERM_CC_ALL	GO:0042470~melanosome	9	2.3746701846965697	6.055301871908753E-4	41159_AT, 612_S_AT, 40669_AT, 40856_AT, 1139_AT, 38391_AT, 41598_AT, 600_AT, 36760_AT	339	89	15908	4.7453514964701204	0.19054495730012178	0.01903415880128123	0.8246503090822421
GOTERM_CC_ALL	GO:0044444~cytoplasmic part	132	34.82849604221636	9.666321025406151E-4	1520_S_AT, 1953_AT, 39522_AT, 274_AT, 31737_AT, 34438_AT, 32583_AT, 39372_AT, 41400_AT, 40347_AT, 39573_AT, 36749_AT, 40478_AT, 41850_S_AT, 259_S_AT, 35886_AT, 36100_AT, 41216_R_AT, 38018_G_AT, 33539_AT, 34666_AT, 33802_AT, 38032_AT, 41105_S_AT, 35345_AT, 39242_AT, 706_AT, 38860_AT, 33751_AT, 38660_AT, 35536_AT, 989_AT, 41598_AT, 41382_AT, 1994_AT, 37048_AT, 31615_I_AT, 39402_AT, 1461_AT, 1939_AT, 34294_AT, 32897_AT, 34581_S_AT, 40856_AT, 38391_AT, 33455_AT, 31694_AT, 1270_AT, 34145_AT, 1857_AT, 40210_AT, 35018_AT, 40473_AT, 36760_AT, 2004_AT, 1750_AT, 39159_AT, 33346_R_AT, 37628_AT, 40840_AT, 32679_AT, 1463_AT, 38684_AT, 36651_AT, 33470_AT, 33698_AT, 40098_AT, 32522_F_AT, 37440_AT, 40522_AT, 38629_AT, 38221_AT, 32186_AT, 35776_AT, 32486_AT, 2036_S_AT, 35606_AT, 430_AT, 37584_AT, 37378_R_AT, 32379_F_AT, 39586_AT, 32779_S_AT, 36562_AT, 36161_AT, 36173_R_AT, 40669_AT, 36101_S_AT, 32718_AT, 33922_AT, 936_S_AT, 37111_G_AT, 1919_AT, 39175_AT, 34981_AT, 38953_AT, 37139_AT, 37862_AT, 35067_AT, 1891_AT, 34475_AT, 36603_AT, 1852_AT, 612_S_AT, 39304_G_AT, 1602_AT, 2082_S_AT, 39408_AT, 40792_S_AT, 32645_AT, 34712_AT, 38654_AT, 41726_AT, 38685_AT, 41234_AT, 41159_AT, 1895_AT, 37722_S_AT, 887_AT, 40319_AT, 40735_AT, 1139_AT, 33893_R_AT, 37206_AT, 41445_AT, 36532_AT, 35440_G_AT, 1125_S_AT, 37317_AT, 35714_AT, 37377_I_AT, 41111_AT, 568_AT, 36479_AT, 41717_AT, 35687_AT, 1091_AT, 600_AT, 749_AT, 37820_AT, 41550_AT, 34184_AT	339	4895	15908	1.2654270657253655	0.286460696315729	0.027734612926163527	1.3134175412463311
GOTERM_CC_ALL	GO:0043005~neuron projection	18	4.749340369393139	0.0010824277725348126	471_F_AT, 35606_AT, 37317_AT, 36285_AT, 33470_AT, 34475_AT, 39242_AT, 35471_G_AT, 34537_AT, 32931_AT, 39573_AT, 38629_AT, 40669_AT, 38642_AT, 600_AT, 41445_AT, 38024_AT, 36532_AT	339	342	15908	2.469802825648191	0.3147502394104419	0.028656156898196006	1.4696786638089376
GOTERM_CC_ALL	GO:0009898~internal side of plasma membrane	17	4.485488126649076	0.001234635948799774	37048_AT, 35985_AT, 35595_AT, 37628_AT, 32522_F_AT, 40098_AT, 36161_AT, 36173_R_AT, 39232_AT, 33751_AT, 41159_AT, 36052_AT, 38629_AT, 600_AT, 40210_AT, 32133_AT, 34184_AT	339	316	15908	2.5245136477353345	0.3502412638481821	0.030327337448521785	1.6747280242851992
GOTERM_CC_ALL	GO:0005887~integral to plasma membrane	42	11.081794195250659	0.0014174425352558259	2036_S_AT, 37223_AT, 471_F_AT, 39748_AT, 31615_I_AT, 35149_AT, 39841_AT, 38538_AT, 33012_AT, 35414_S_AT, 37233_AT, 40913_AT, 39757_AT, 35472_AT, 1007_S_AT, 39573_AT, 259_S_AT, 39071_AT, 136_AT, 34145_AT, 1569_R_AT, 1167_S_AT, 33665_S_AT, 39753_AT, 36728_AT, 34981_AT, 257_AT, 1125_S_AT, 39424_AT, 37139_AT, 33143_S_AT, 41106_AT, 833_AT, 36285_AT, 37889_AT, 37857_AT, 1852_AT, 35471_G_AT, 33545_AT, 1432_S_AT, 40310_AT, 33829_AT, 34493_AT, 988_AT, 31977_AT, 40954_AT	339	1188	15908	1.659008968743482	0.39045248269097954	0.032463915498453066	1.9204756751134977
GOTERM_CC_ALL	GO:0031226~intrinsic to plasma membrane	42	11.081794195250659	0.0021585536106655044	2036_S_AT, 37223_AT, 471_F_AT, 39748_AT, 31615_I_AT, 35149_AT, 39841_AT, 38538_AT, 33012_AT, 35414_S_AT, 37233_AT, 40913_AT, 39757_AT, 35472_AT, 1007_S_AT, 39573_AT, 259_S_AT, 39071_AT, 136_AT, 34145_AT, 1569_R_AT, 1167_S_AT, 33665_S_AT, 39753_AT, 36728_AT, 34981_AT, 257_AT, 1125_S_AT, 39424_AT, 37139_AT, 33143_S_AT, 41106_AT, 833_AT, 36285_AT, 37889_AT, 37857_AT, 1852_AT, 35471_G_AT, 33545_AT, 1432_S_AT, 40310_AT, 33829_AT, 34493_AT, 988_AT, 31977_AT, 40954_AT	339	1215	15908	1.6221421027714045	0.5295894426281489	0.04604076585738881	2.910933829398188
GOTERM_CC_ALL	GO:0005576~extracellular region	62	16.358839050131927	0.0024218627564699317	2036_S_AT, 35149_AT, 1520_S_AT, 40442_F_AT, 1953_AT, 37906_AT, 875_G_AT, 1148_S_AT, 37233_AT, 35915_AT, 1804_AT, 32464_AT, 2030_AT, 35956_S_AT, 36674_AT, 259_S_AT, 36101_S_AT, 36100_AT, 37310_AT, 39407_AT, 33665_S_AT, 35372_R_AT, 34963_AT, 33802_AT, 37139_AT, 36009_AT, 35067_AT, 1548_S_AT, 32699_S_AT, 1852_AT, 32359_AT, 612_S_AT, 1263_AT, 41382_AT, 988_AT, 36621_AT, 31615_I_AT, 39950_AT, 39402_AT, 35414_S_AT, 33012_AT, 31859_AT, 36929_AT, 41169_AT, 36754_AT, 1385_AT, 38356_AT, 1007_S_AT, 887_AT, 34375_AT, 189_S_AT, 40856_AT, 1018_AT, 33825_AT, 41445_AT, 719_G_AT, 1369_S_AT, 1167_S_AT, 31745_AT, 1125_S_AT, 31586_F_AT, 408_AT, 38691_S_AT, 40385_AT, 35378_AT, 36615_AT, 31564_AT, 32931_AT, 1332_F_AT, 36103_AT, 41365_AT	339	2010	15908	1.4474764818972983	0.5709815153460045	0.04856101746028718	3.260595644911346
GOTERM_CC_ALL	GO:0043025~cell soma	11	2.9023746701846966	0.003196827956893446	35606_AT, 37317_AT, 34537_AT, 39573_AT, 34375_AT, 875_G_AT, 38642_AT, 600_AT, 41445_AT, 36285_AT, 34475_AT, 39242_AT	339	168	15908	3.072552324764714	0.6728969780916054	0.06019439482572475	4.282950855714729
GOTERM_CC_ALL	GO:0005886~plasma membrane	103	27.176781002638524	0.003640090431377194	40442_F_AT, 37270_AT, 37762_AT, 40913_AT, 39757_AT, 39573_AT, 259_S_AT, 38642_AT, 136_AT, 38018_G_AT, 33665_S_AT, 36728_AT, 33802_AT, 38032_AT, 33143_S_AT, 35595_AT, 41105_S_AT, 36285_AT, 39242_AT, 33751_AT, 33545_AT, 988_AT, 32133_AT, 37048_AT, 31615_I_AT, 39841_AT, 33012_AT, 41169_AT, 35472_AT, 34581_S_AT, 33092_AT, 31694_AT, 34145_AT, 1167_S_AT, 40210_AT, 1857_AT, 31745_AT, 39424_AT, 41106_AT, 37628_AT, 32679_AT, 33470_AT, 32522_F_AT, 40098_AT, 38671_AT, 31564_AT, 1432_S_AT, 32919_AT, 38629_AT, 33829_AT, 38221_AT, 33366_AT, 32186_AT, 35776_AT, 37223_AT, 35985_AT, 471_F_AT, 2036_S_AT, 35149_AT, 37378_R_AT, 38538_AT, 1148_S_AT, 37233_AT, 39586_AT, 36161_AT, 36173_R_AT, 34537_AT, 40669_AT, 1267_AT, 37310_AT, 1569_R_AT, 40365_AT, 1919_AT, 257_AT, 34981_AT, 37139_AT, 833_AT, 32699_S_AT, 1852_AT, 35471_G_AT, 34493_AT, 1602_AT, 919_AT, 2082_S_AT, 40954_AT, 39748_AT, 34712_AT, 35414_S_AT, 41726_AT, 39232_AT, 1007_S_AT, 41159_AT, 189_S_AT, 39071_AT, 1139_AT, 36532_AT, 39753_AT, 1125_S_AT, 37377_I_AT, 32193_AT, 37889_AT, 568_AT, 37857_AT, 32931_AT, 36052_AT, 40310_AT, 600_AT, 31977_AT, 34184_AT	339	3777	15908	1.2796939713512074	0.7199282215340024	0.06479049287286431	4.863203476285339
GOTERM_CC_ALL	GO:0005624~membrane fraction	30	7.9155672823219	0.0041964772832943035	37762_AT, 39841_AT, 38538_AT, 37233_AT, 39372_AT, 41726_AT, 41779_AT, 32779_S_AT, 887_AT, 39573_AT, 31694_AT, 1270_AT, 32718_AT, 39753_AT, 2004_AT, 33802_AT, 37317_AT, 37139_AT, 33143_S_AT, 40840_AT, 33470_AT, 36651_AT, 568_AT, 31564_AT, 41717_AT, 612_S_AT, 988_AT, 600_AT, 1994_AT, 35776_AT, 35768_AT	339	809	15908	1.740157738713806	0.7695340649852762	0.07075477720279233	5.586926983653329
GOTERM_CC_ALL	GO:0016342~catenin complex	3	0.79155672823219	0.004314162921375247	1857_AT, 2082_S_AT, 34184_AT	339	5	15908	28.155752212389384	0.7788468929376059	0.06933173108154689	5.739351979095808
GOTERM_CC_ALL	GO:0044421~extracellular region part	34	8.970976253298153	0.0044880177082184105	2036_S_AT, 36621_AT, 31615_I_AT, 1520_S_AT, 40442_F_AT, 1953_AT, 39950_AT, 39402_AT, 37906_AT, 875_G_AT, 33012_AT, 31859_AT, 1148_S_AT, 36929_AT, 1385_AT, 2030_AT, 887_AT, 34375_AT, 40856_AT, 36674_AT, 1018_AT, 259_S_AT, 36101_S_AT, 36100_AT, 39407_AT, 719_G_AT, 1369_S_AT, 1167_S_AT, 41445_AT, 35372_R_AT, 34963_AT, 33802_AT, 1125_S_AT, 408_AT, 38691_S_AT, 40385_AT, 1548_S_AT, 32699_S_AT, 1852_AT, 612_S_AT, 1263_AT, 36103_AT	339	960	15908	1.6619714847590954	0.791922269336307	0.06887013872301295	5.964109260641958
GOTERM_CC_ALL	GO:0012506~vesicle membrane	10	2.638522427440633	0.005010330322613522	41159_AT, 35536_AT, 38032_AT, 989_AT, 40669_AT, 41382_AT, 600_AT, 32779_S_AT, 32522_F_AT, 36161_AT	339	151	15908	3.107698919689777	0.8267466863722719	0.07338527406677153	6.63636420112983
GOTERM_CC_ALL	GO:0005615~extracellular space	26	6.860158311345646	0.00612897939057814	36621_AT, 1520_S_AT, 1953_AT, 39950_AT, 39402_AT, 875_G_AT, 33012_AT, 31859_AT, 1148_S_AT, 1385_AT, 887_AT, 34375_AT, 259_S_AT, 36674_AT, 40856_AT, 36101_S_AT, 36100_AT, 39407_AT, 719_G_AT, 41445_AT, 1369_S_AT, 35372_R_AT, 33802_AT, 408_AT, 38691_S_AT, 40385_AT, 1548_S_AT, 32699_S_AT, 1852_AT, 612_S_AT, 1263_AT, 36103_AT	339	685	15908	1.7811424757229293	0.8830016796637575	0.08552012764757466	8.061189228525588
GOTERM_CC_ALL	GO:0005794~Golgi apparatus	31	8.179419525065963	0.006427533705650713	2036_S_AT, 31615_I_AT, 34712_AT, 32645_AT, 274_AT, 34294_AT, 38685_AT, 41726_AT, 36173_R_AT, 41159_AT, 887_AT, 40669_AT, 31694_AT, 1270_AT, 32718_AT, 936_S_AT, 33922_AT, 41445_AT, 40210_AT, 33539_AT, 34981_AT, 1125_S_AT, 38684_AT, 32522_F_AT, 568_AT, 40522_AT, 33751_AT, 36479_AT, 35536_AT, 41598_AT, 2082_S_AT, 34184_AT, 41550_AT	339	872	15908	1.6682498443885145	0.8946481370981573	0.08608524545194773	8.438036393327797
GOTERM_CC_ALL	GO:0044433~cytoplasmic vesicle part	11	2.9023746701846966	0.00676455061323395	41159_AT, 1953_AT, 35536_AT, 38032_AT, 40669_AT, 36101_S_AT, 36100_AT, 41382_AT, 600_AT, 41445_AT, 32779_S_AT, 32522_F_AT, 36161_AT	339	187	15908	2.760367863959743	0.9064116461888022	0.08708234081959865	8.861712109714958
GOTERM_CC_ALL	GO:0030139~endocytic vesicle	6	1.58311345646438	0.008240444552137786	41382_AT, 600_AT, 38685_AT, 35776_AT, 40098_AT, 36161_AT	339	59	15908	4.772161391930403	0.9443030593812354	0.10143539203746399	10.695795447421297
GOTERM_CC_ALL	GO:0030659~cytoplasmic vesicle membrane	9	2.3746701846965697	0.009727673174320925	41159_AT, 35536_AT, 38032_AT, 40669_AT, 41382_AT, 600_AT, 32779_S_AT, 32522_F_AT, 36161_AT	339	139	15908	3.038390526516839	0.9670109084571672	0.11471184072126483	12.509310065249101
GOTERM_CC_ALL	GO:0005737~cytoplasm	177	46.701846965699204	0.013834251583556226	1520_S_AT, 36210_G_AT, 1953_AT, 39522_AT, 274_AT, 37270_AT, 875_G_AT, 31737_AT, 34438_AT, 32583_AT, 39372_AT, 41400_AT, 40347_AT, 39573_AT, 41850_S_AT, 32626_AT, 40478_AT, 36749_AT, 37218_AT, 259_S_AT, 35886_AT, 36100_AT, 41446_F_AT, 41216_R_AT, 38018_G_AT, 33539_AT, 34666_AT, 33802_AT, 38032_AT, 1973_S_AT, 41105_S_AT, 31888_S_AT, 35345_AT, 36018_AT, 39242_AT, 38860_AT, 706_AT, 38660_AT, 33751_AT, 35536_AT, 989_AT, 41598_AT, 37723_AT, 41382_AT, 1994_AT, 38491_AT, 35294_AT, 37048_AT, 31615_I_AT, 39402_AT, 1461_AT, 37606_AT, 1939_AT, 34294_AT, 32897_AT, 352_AT, 35472_AT, 34581_S_AT, 34375_AT, 40856_AT, 38391_AT, 33455_AT, 31694_AT, 1270_AT, 35500_AT, 34145_AT, 1857_AT, 40210_AT, 35018_AT, 40473_AT, 36760_AT, 2004_AT, 32405_AT, 1750_AT, 39159_AT, 33346_R_AT, 37628_AT, 40840_AT, 32679_AT, 1463_AT, 38684_AT, 35314_AT, 33698_AT, 33470_AT, 36651_AT, 40098_AT, 32522_F_AT, 37424_AT, 40522_AT, 37440_AT, 38629_AT, 38221_AT, 33366_AT, 32186_AT, 35776_AT, 32486_AT, 37223_AT, 2036_S_AT, 35606_AT, 430_AT, 36999_AT, 37584_AT, 37378_R_AT, 32379_F_AT, 39586_AT, 1649_AT, 41505_R_AT, 32779_S_AT, 36562_AT, 36161_AT, 33094_S_AT, 36173_R_AT, 1936_S_AT, 40669_AT, 36101_S_AT, 1267_AT, 32718_AT, 33922_AT, 936_S_AT, 37111_G_AT, 1919_AT, 39175_AT, 34981_AT, 37418_AT, 37139_AT, 38953_AT, 37862_AT, 35848_AT, 35067_AT, 1891_AT, 34475_AT, 32699_S_AT, 39503_S_AT, 36603_AT, 1852_AT, 38970_S_AT, 35471_G_AT, 41657_AT, 612_S_AT, 39304_G_AT, 1602_AT, 199_S_AT, 39408_AT, 2082_S_AT, 37724_AT, 40792_S_AT, 40895_G_AT, 34226_AT, 32645_AT, 34712_AT, 38654_AT, 848_AT, 41726_AT, 38685_AT, 41234_AT, 41159_AT, 1244_AT, 1895_AT, 887_AT, 37722_S_AT, 40319_AT, 40735_AT, 1139_AT, 33893_R_AT, 37206_AT, 41445_AT, 36532_AT, 41180_I_AT, 32696_AT, 35440_G_AT, 1125_S_AT, 37317_AT, 35714_AT, 37377_I_AT, 41499_AT, 38691_S_AT, 41111_AT, 568_AT, 36479_AT, 41717_AT, 35687_AT, 36052_AT, 35429_AT, 1091_AT, 600_AT, 652_G_AT, 37820_AT, 749_AT, 34184_AT, 41550_AT	339	7319	15908	1.1348472335913196	0.9922639340517374	0.1543505894969862	17.341132528811045
GOTERM_CC_ALL	GO:0048471~perinuclear region of cytoplasm	13	3.430079155672823	0.02054584704816586	37317_AT, 38953_AT, 37378_R_AT, 37377_I_AT, 35067_AT, 41726_AT, 36562_AT, 39242_AT, 41234_AT, 40319_AT, 33455_AT, 600_AT, 2082_S_AT, 36532_AT	339	288	15908	2.118198951163553	0.999286399586589	0.21455610256362057	24.70882969464282
GOTERM_CC_ALL	GO:0019897~extrinsic to plasma membrane	5	1.3192612137203166	0.021420201279063827	1139_AT, 1857_AT, 2082_S_AT, 40365_AT, 34184_AT	339	50	15908	4.692625368731563	0.9994774956452588	0.21633232587386364	25.622505469194955
GOTERM_CC_ALL	GO:0030425~dendrite	9	2.3746701846965697	0.0233029851513794	35606_AT, 35471_G_AT, 34537_AT, 39573_AT, 40669_AT, 600_AT, 36285_AT, 33470_AT, 34475_AT	339	163	15908	2.5910201422444215	0.9997331966589754	0.22675258468234039	27.555180018502867
GOTERM_CC_ALL	GO:0044424~intracellular part	244	64.37994722955145	0.023994247249850664	1866_G_AT, 1520_S_AT, 36210_G_AT, 39522_AT, 274_AT, 37270_AT, 31737_AT, 1388_G_AT, 34438_AT, 32583_AT, 39372_AT, 41400_AT, 40347_AT, 37218_AT, 40478_AT, 41216_R_AT, 32364_AT, 34666_AT, 32928_AT, 33802_AT, 38032_AT, 31669_S_AT, 1973_S_AT, 41371_AT, 31888_S_AT, 33751_AT, 38660_AT, 35536_AT, 989_AT, 37938_AT, 41382_AT, 32872_AT, 36055_AT, 39519_AT, 35768_AT, 37048_AT, 35992_AT, 31615_I_AT, 36507_AT, 1939_AT, 34294_AT, 352_AT, 37385_AT, 35472_AT, 762_F_AT, 38391_AT, 34145_AT, 36760_AT, 2004_AT, 1005_AT, 32679_AT, 38684_AT, 36651_AT, 33698_AT, 40098_AT, 37440_AT, 38629_AT, 40661_AT, 38221_AT, 33288_I_AT, 32186_AT, 32486_AT, 38062_AT, 36999_AT, 37584_AT, 36711_AT, 37378_R_AT, 1148_S_AT, 1649_AT, 39586_AT, 36161_AT, 36173_R_AT, 1936_S_AT, 36101_S_AT, 224_AT, 32718_AT, 33922_AT, 37111_G_AT, 1919_AT, 39175_AT, 37418_AT, 37139_AT, 38953_AT, 1743_S_AT, 35067_AT, 1891_AT, 34475_AT, 39503_S_AT, 36603_AT, 35471_G_AT, 412_S_AT, 612_S_AT, 199_S_AT, 2082_S_AT, 40792_S_AT, 40895_G_AT, 34712_AT, 38654_AT, 848_AT, 35160_AT, 41234_AT, 1244_AT, 35376_F_AT, 1258_S_AT, 1895_AT, 40319_AT, 1139_AT, 33893_R_AT, 39698_AT, 36532_AT, 41180_I_AT, 32696_AT, 35440_G_AT, 1125_S_AT, 35714_AT, 37377_I_AT, 41499_AT, 38691_S_AT, 41111_AT, 39421_AT, 36479_AT, 35429_AT, 652_G_AT, 39331_AT, 37820_AT, 749_AT, 34184_AT, 1953_AT, 875_G_AT, 38374_AT, 37170_AT, 38823_S_AT, 1829_AT, 39573_AT, 41850_S_AT, 32626_AT, 36749_AT, 259_S_AT, 35886_AT, 36100_AT, 41446_F_AT, 38018_G_AT, 33539_AT, 287_AT, 36226_R_AT, 35595_AT, 41105_S_AT, 31741_AT, 35345_AT, 36018_AT, 39242_AT, 706_AT, 38860_AT, 32265_AT, 41099_AT, 41598_AT, 37723_AT, 1788_S_AT, 40790_AT, 1994_AT, 38491_AT, 35294_AT, 39402_AT, 1461_AT, 37606_AT, 1124_AT, 32897_AT, 131_AT, 31521_F_AT, 34581_S_AT, 1242_AT, 34375_AT, 40856_AT, 33455_AT, 31694_AT, 1270_AT, 35500_AT, 1857_AT, 40210_AT, 35018_AT, 40473_AT, 32405_AT, 1774_AT, 37506_AT, 1750_AT, 33346_R_AT, 39159_AT, 40840_AT, 37628_AT, 1463_AT, 33470_AT, 35314_AT, 32522_F_AT, 37424_AT, 40522_AT, 32919_AT, 37463_R_AT, 33366_AT, 35776_AT, 34165_AT, 471_F_AT, 37223_AT, 2036_S_AT, 35606_AT, 430_AT, 35149_AT, 32379_F_AT, 41505_R_AT, 32779_S_AT, 36562_AT, 41532_AT, 33094_S_AT, 40669_AT, 1267_AT, 39967_AT, 36669_AT, 936_S_AT, 34981_AT, 39870_AT, 37862_AT, 35848_AT, 32699_S_AT, 1852_AT, 38970_S_AT, 41657_AT, 39304_G_AT, 1602_AT, 37724_AT, 39408_AT, 34562_AT, 34226_AT, 32645_AT, 36519_AT, 41726_AT, 38685_AT, 41159_AT, 887_AT, 37722_S_AT, 40735_AT, 33825_AT, 37206_AT, 41445_AT, 37317_AT, 41387_R_AT, 31522_F_AT, 1911_S_AT, 31734_AT, 967_G_AT, 34688_AT, 36960_AT, 568_AT, 31353_F_AT, 789_AT, 35687_AT, 36052_AT, 41717_AT, 1091_AT, 600_AT, 31977_AT, 41550_AT	339	10624	15908	1.0777490492945232	0.9997916086244261	0.22651677157099848	28.252999756458173
GOTERM_CC_ALL	GO:0043234~protein complex	70	18.46965699208443	0.02444902727978209	37223_AT, 471_F_AT, 2036_S_AT, 36999_AT, 37378_R_AT, 31737_AT, 32583_AT, 32779_S_AT, 36161_AT, 36173_R_AT, 33094_S_AT, 39573_AT, 38018_G_AT, 1569_R_AT, 40365_AT, 39175_AT, 32928_AT, 257_AT, 34981_AT, 37862_AT, 31669_S_AT, 35595_AT, 833_AT, 41371_AT, 36285_AT, 33751_AT, 38660_AT, 33545_AT, 1602_AT, 2082_S_AT, 36055_AT, 32872_AT, 35768_AT, 40954_AT, 31615_I_AT, 1461_AT, 1939_AT, 34294_AT, 1124_AT, 38654_AT, 36519_AT, 131_AT, 35160_AT, 34581_S_AT, 41159_AT, 1258_S_AT, 1895_AT, 40319_AT, 1139_AT, 39071_AT, 38391_AT, 33893_R_AT, 1857_AT, 36760_AT, 36532_AT, 39753_AT, 32696_AT, 1125_S_AT, 37317_AT, 37377_I_AT, 41499_AT, 33346_R_AT, 41106_AT, 34688_AT, 35314_AT, 32522_F_AT, 568_AT, 36479_AT, 36052_AT, 38629_AT, 1091_AT, 600_AT, 652_G_AT, 39331_AT, 34184_AT	339	2588	15908	1.2692572481113193	0.9998228919768443	0.22437095141952357	28.708690815663118
GOTERM_CC_ALL	GO:0042995~cell projection	24	6.33245382585752	0.024771503984174645	471_F_AT, 35606_AT, 37317_AT, 36285_AT, 33470_AT, 34475_AT, 39242_AT, 35471_G_AT, 34537_AT, 32931_AT, 36479_AT, 39573_AT, 38629_AT, 40669_AT, 1139_AT, 31694_AT, 38642_AT, 600_AT, 919_AT, 41445_AT, 38024_AT, 35776_AT, 39753_AT, 36532_AT	339	697	15908	1.6158250910983862	0.9998421925143385	0.2212912148584686	29.03018643611084
GOTERM_CC_ALL	GO:0016363~nuclear matrix	5	1.3192612137203166	0.0309713328956887	37378_R_AT, 37377_I_AT, 1939_AT, 36226_R_AT, 749_AT, 37385_AT	339	56	15908	4.189844079224611	0.9999829595065148	0.26287494817136636	34.955828752146445
GOTERM_CC_ALL	GO:0005874~microtubule	12	3.16622691292876	0.032935123577246234	471_F_AT, 36479_AT, 37317_AT, 38629_AT, 40319_AT, 33893_R_AT, 34294_AT, 33346_R_AT, 34688_AT, 39331_AT, 36532_AT, 34184_AT	339	274	15908	2.055164395064918	0.9999916052469587	0.2708598303102534	36.734921269844264
GOTERM_CC_ALL	GO:0005625~soluble fraction	13	3.430079155672823	0.03587844414477524	35606_AT, 37317_AT, 1750_AT, 1463_AT, 36754_AT, 35378_AT, 32359_AT, 1432_S_AT, 40735_AT, 36103_AT, 36760_AT, 34666_AT, 39175_AT	339	313	15908	1.949013731422055	0.9999971026848651	0.285070783122091	39.31711981489529
GOTERM_CC_ALL	GO:0034399~nuclear periphery	5	1.3192612137203166	0.0405679524891526	37378_R_AT, 37377_I_AT, 1939_AT, 36226_R_AT, 749_AT, 37385_AT	339	61	15908	3.8464142366652156	0.9999994715996401	0.3096801906798272	43.23025834577536
GOTERM_CC_ALL	GO:0030117~membrane coat	5	1.3192612137203166	0.04482816200975946	36173_R_AT, 33751_AT, 41159_AT, 32522_F_AT, 36161_AT	339	63	15908	3.7243058481996534	0.9999998881987222	0.3297895900382598	46.58110845036365
GOTERM_CC_ALL	GO:0048475~coated membrane	5	1.3192612137203166	0.04482816200975946	36173_R_AT, 33751_AT, 41159_AT, 32522_F_AT, 36161_AT	339	63	15908	3.7243058481996534	0.9999998881987222	0.3297895900382598	46.58110845036365
GOTERM_CC_ALL	GO:0030424~axon	8	2.1108179419525066	0.05341835530845203	471_F_AT, 32931_AT, 39573_AT, 38629_AT, 38642_AT, 600_AT, 41445_AT, 36532_AT	339	159	15908	2.361069367915252	0.9999999952228433	0.37330978441602825	52.787416931497866
GOTERM_CC_ALL	GO:0005881~cytoplasmic microtubule	3	0.79155672823219	0.05505468698749071	37317_AT, 33346_R_AT, 36532_AT	339	18	15908	7.821042281219272	0.9999999973882617	0.3753436167502542	53.89103799008507
GOTERM_CC_ALL	GO:0005622~intracellular	248	65.4353562005277	0.061249860158860914	1866_G_AT, 1520_S_AT, 36210_G_AT, 39522_AT, 37270_AT, 274_AT, 31737_AT, 1388_G_AT, 34438_AT, 32583_AT, 39372_AT, 41400_AT, 40347_AT, 37218_AT, 40478_AT, 41216_R_AT, 32364_AT, 34666_AT, 32928_AT, 33802_AT, 38032_AT, 31669_S_AT, 1973_S_AT, 41371_AT, 31888_S_AT, 33751_AT, 38660_AT, 35536_AT, 989_AT, 37938_AT, 41382_AT, 2043_S_AT, 32872_AT, 36055_AT, 39519_AT, 35768_AT, 37048_AT, 35992_AT, 31615_I_AT, 36507_AT, 1939_AT, 34294_AT, 352_AT, 37385_AT, 35472_AT, 762_F_AT, 38391_AT, 34145_AT, 36760_AT, 2004_AT, 1005_AT, 32679_AT, 38684_AT, 36651_AT, 33698_AT, 40098_AT, 37440_AT, 38671_AT, 38629_AT, 40661_AT, 38221_AT, 33288_I_AT, 32186_AT, 32486_AT, 38062_AT, 36999_AT, 37584_AT, 36711_AT, 37378_R_AT, 1148_S_AT, 1649_AT, 39586_AT, 36161_AT, 36173_R_AT, 1936_S_AT, 36101_S_AT, 224_AT, 32718_AT, 33922_AT, 37111_G_AT, 1919_AT, 39175_AT, 37418_AT, 37139_AT, 38953_AT, 1743_S_AT, 35067_AT, 1891_AT, 34475_AT, 39503_S_AT, 36603_AT, 35471_G_AT, 412_S_AT, 612_S_AT, 199_S_AT, 2082_S_AT, 40792_S_AT, 40895_G_AT, 34712_AT, 38654_AT, 848_AT, 35160_AT, 41234_AT, 1244_AT, 35376_F_AT, 1258_S_AT, 1895_AT, 40319_AT, 1139_AT, 33893_R_AT, 39698_AT, 36532_AT, 41180_I_AT, 32696_AT, 35440_G_AT, 1125_S_AT, 35714_AT, 37377_I_AT, 41499_AT, 38691_S_AT, 41111_AT, 32193_AT, 39421_AT, 36479_AT, 35429_AT, 652_G_AT, 39331_AT, 37820_AT, 749_AT, 34184_AT, 1953_AT, 875_G_AT, 38374_AT, 37170_AT, 38823_S_AT, 1829_AT, 39573_AT, 41850_S_AT, 32626_AT, 36749_AT, 259_S_AT, 35886_AT, 36100_AT, 41446_F_AT, 38018_G_AT, 33539_AT, 287_AT, 36226_R_AT, 35595_AT, 41105_S_AT, 31741_AT, 35345_AT, 36018_AT, 39242_AT, 706_AT, 38860_AT, 32265_AT, 41099_AT, 41598_AT, 37723_AT, 1788_S_AT, 40790_AT, 1994_AT, 38491_AT, 35294_AT, 39402_AT, 1461_AT, 37606_AT, 1124_AT, 32897_AT, 131_AT, 31521_F_AT, 34581_S_AT, 1242_AT, 34375_AT, 40856_AT, 33455_AT, 1270_AT, 31694_AT, 35500_AT, 1857_AT, 40210_AT, 35018_AT, 40473_AT, 32405_AT, 1774_AT, 37506_AT, 1750_AT, 33346_R_AT, 39159_AT, 40840_AT, 37628_AT, 1463_AT, 33470_AT, 35314_AT, 32522_F_AT, 37424_AT, 40522_AT, 32919_AT, 37463_R_AT, 33366_AT, 35776_AT, 34165_AT, 35606_AT, 471_F_AT, 37223_AT, 2036_S_AT, 430_AT, 35149_AT, 32379_F_AT, 41505_R_AT, 32779_S_AT, 36562_AT, 41532_AT, 33094_S_AT, 40669_AT, 1267_AT, 39967_AT, 36669_AT, 936_S_AT, 34981_AT, 39870_AT, 37862_AT, 35848_AT, 32699_S_AT, 1852_AT, 38970_S_AT, 41657_AT, 39304_G_AT, 1602_AT, 37724_AT, 39408_AT, 34562_AT, 34226_AT, 32645_AT, 36519_AT, 41726_AT, 38685_AT, 41159_AT, 37722_S_AT, 887_AT, 37831_AT, 40735_AT, 33825_AT, 37206_AT, 41445_AT, 37317_AT, 41387_R_AT, 31522_F_AT, 1911_S_AT, 31734_AT, 967_G_AT, 34688_AT, 36960_AT, 568_AT, 31353_F_AT, 789_AT, 35687_AT, 36052_AT, 41717_AT, 1091_AT, 600_AT, 31977_AT, 41550_AT	339	10995	15908	1.0584548353300844	0.9999999997370004	0.40130137751474204	57.85636232263851
GOTERM_CC_ALL	GO:0031012~extracellular matrix	13	3.430079155672823	0.06558741839116398	36621_AT, 2036_S_AT, 31615_I_AT, 1125_S_AT, 40442_F_AT, 1953_AT, 37906_AT, 31859_AT, 36929_AT, 1385_AT, 2030_AT, 1018_AT, 36101_S_AT, 36100_AT, 1167_S_AT, 41445_AT, 34963_AT	339	345	15908	1.768235646188705	0.9999999999477606	0.41612733129027724	60.44193093403168
GOTERM_CC_ALL	GO:0005694~chromosome	16	4.221635883905013	0.0671595236969779	37317_AT, 1939_AT, 1388_G_AT, 31522_F_AT, 33346_R_AT, 36519_AT, 32583_AT, 41505_R_AT, 35314_AT, 33698_AT, 31521_F_AT, 1258_S_AT, 1895_AT, 762_F_AT, 41216_R_AT, 652_G_AT, 36055_AT, 35768_AT	339	460	15908	1.6322175195588047	0.9999999999709748	0.41677051172250434	61.342161718971546
GOTERM_CC_ALL	GO:0070161~anchoring junction	8	2.1108179419525066	0.07461290177595678	2036_S_AT, 39232_AT, 1125_S_AT, 31615_I_AT, 41105_S_AT, 39586_AT, 1857_AT, 2082_S_AT, 39753_AT, 35472_AT	339	172	15908	2.1826164505728203	0.9999999999982344	0.4447387001275215	65.35754236278632
GOTERM_CC_ALL	GO:0005667~transcription factor complex	9	2.3746701846965697	0.08012908762208418	32696_AT, 1895_AT, 31669_S_AT, 1939_AT, 41371_AT, 131_AT, 32583_AT, 1857_AT, 32872_AT, 32928_AT	339	210	15908	2.011125158027813	0.9999999999997808	0.46216032620273495	68.07644304494806
GOTERM_CC_ALL	GO:0030141~secretory granule	8	2.1108179419525066	0.08963384419860512	1520_S_AT, 1953_AT, 39402_AT, 36749_AT, 40669_AT, 36101_S_AT, 36100_AT, 600_AT, 41445_AT, 41726_AT, 32779_S_AT	339	180	15908	2.085611274991806	0.9999999999999941	0.49479564206213833	72.30224961630711
